\relax 
\citation{lazaros2008review}
\citation{westin2004comparison}
\citation{westin2004comparison,Jahne}
\citation{harlyn}
\citation{lumigraph}
\@writefile{toc}{\contentsline {title}{Depth Reconstruction Including Specular Surface Reflection}{1}}
\@writefile{toc}{\authcount {1}}
\@writefile{toc}{\contentsline {author}{Anonymous ECCV submission}{1}}
\@writefile{toc}{\contentsline {section}{\numberline {1}Introduction}{1}}
\citation{wanner14}
\citation{disney}
\citation{tao2013depth}
\citation{accurate}
\citation{establishing}
\citation{depthglossy}
\citation{albedo}
\citation{chandraker}
\citation{zhou}
\citation{wanner14}
\citation{lumigraph}
\citation{structuretensor}
\citation{harlyn}
\@writefile{toc}{\contentsline {section}{\numberline {2}Related Work}{2}}
\@writefile{toc}{\contentsline {section}{\numberline {3}Depth Reconstruction Including Specular Surface Reflection}{2}}
\newlabel{chapter:depthreconstruction}{{3}{2}}
\@writefile{toc}{\contentsline {subsection}{\numberline {3.1}Epipolar Plane}{2}}
\newlabel{chapter:epi}{{3.1}{2}}
\citation{harlyn}
\newlabel{eq:linie}{{2}{3}}
\newlabel{eq:steigung}{{3}{3}}
\@writefile{toc}{\contentsline {subsection}{\numberline {3.2}Line Extraction}{3}}
\newlabel{chapter:linienextraktion}{{3.2}{3}}
\newlabel{eq:grauwertVerlauf}{{8}{3}}
\citation{brdf}
\citation{Phong}
\citation{Ward}
\citation{He}
\@writefile{toc}{\contentsline {subsection}{\numberline {3.3}Reflection Models}{4}}
\newlabel{chapter:modelle}{{3.3}{4}}
\newlabel{eq:parabel}{{10}{4}}
\newlabel{eq:gaussFit3P}{{11}{4}}
\newlabel{eq:residual}{{12}{5}}
\@writefile{lof}{\contentsline {figure}{\numberline {1}{\ignorespaces Ansatz der Fit--Methodik}}{5}}
\newlabel{fig:polyFitEinstieg}{{1}{5}}
\citation{wanner14}
\citation{wanner14}
\citation{structuretensor}
\@writefile{toc}{\contentsline {subsection}{\numberline {3.4}Occlusions}{6}}
\newlabel{chapter:verdeckungen}{{3.4}{6}}
\@writefile{lof}{\contentsline {figure}{\numberline {2}{\ignorespaces Verdeckungen -- Definition}}{6}}
\newlabel{fig:definitionOcclusions}{{2}{6}}
\newlabel{eq:wichtung}{{13}{6}}
\newlabel{eq:residualMitWichtung}{{14}{6}}
\citation{Burt83}
\citation{petrovic04}
\citation{Jahne}
\citation{petrovic04}
\@writefile{toc}{\contentsline {section}{\numberline {4}Bandpass Filter on the EPI}{7}}
\newlabel{chapter:daten}{{4}{7}}
\@writefile{lof}{\contentsline {figure}{\numberline {3}{\ignorespaces Laplace Methode}}{7}}
\newlabel{fig:laplaceMethode}{{3}{7}}
\newlabel{eq:laplace1}{{16}{8}}
\newlabel{eq:laplace2}{{17}{8}}
\@writefile{lof}{\contentsline {figure}{\numberline {4}{\ignorespaces Median und IQR Verlauf f"ur Gau\ss -- u. Parabel--Fit auf Laplace--Daten mit und ohne 1\% Rauschen}}{9}}
\newlabel{fig:beideMethURausch}{{4}{9}}
\citation{structuretensor}
\citation{structuretensor}
\@writefile{toc}{\contentsline {section}{\numberline {5}Experiments}{10}}
\newlabel{chapter:ergebnisse}{{5}{10}}
\@writefile{lof}{\contentsline {figure}{\numberline {5}{\ignorespaces Untersuchungsobjekte}}{10}}
\newlabel{fig:untersuchsObjekte}{{5}{10}}
\citation{cloudcompare}
\newlabel{eq:rms}{{18}{11}}
\@writefile{lot}{\contentsline {table}{\numberline {1}{\ignorespaces Resultate verschiedener Tiefenrekonstruktionsmethoden}}{11}}
\newlabel{tab:meinetabelle}{{1}{11}}
\@writefile{toc}{\contentsline {section}{\numberline {6}Conclusions}{12}}
\@writefile{toc}{\contentsline {subsubsection}{Summary.}{12}}
\@writefile{toc}{\contentsline {subsubsection}{Future Research.}{12}}
\bibstyle{splncs}
\bibdata{egbib}
\bibcite{lazaros2008review}{1}
\bibcite{westin2004comparison}{2}
\bibcite{Jahne}{3}
\bibcite{harlyn}{4}
\bibcite{lumigraph}{5}
\bibcite{wanner14}{6}
\bibcite{disney}{7}
\bibcite{tao2013depth}{8}
\bibcite{accurate}{9}
\bibcite{establishing}{10}
\bibcite{depthglossy}{11}
\bibcite{albedo}{12}
\bibcite{chandraker}{13}
\bibcite{zhou}{14}
\bibcite{structuretensor}{15}
\bibcite{brdf}{16}
\bibcite{Phong}{17}
\bibcite{Ward}{18}
\bibcite{He}{19}
\bibcite{Burt83}{20}
\bibcite{petrovic04}{21}
\bibcite{cloudcompare}{22}
